Intro
  SLOWLY Q=57
  Cmaj7                    Am/E
 4/4
  Gtr I
  H        Q     E.    S    H           E E E. S
|------------------------|----------------8-7----|
|----------------------8-|-10------------------8-|
|------------------------|-----------------------|
|------------------------|-----------------------|
|------------------------|-----------------------|
|------------------------|-----------------------|
|
| Gtr II
| <
| W                         W
|------------------------|-----------------------|
|-0----------------------|--1--------------------|
|-0----------------------|--2--------------------|
|-2----------------------|--2--------------------|
|-3----------------------|-----------------------|
|------------------------|-----------------------|
|
| Gtr III
| Q  E  E  E  E  E  E       E  E  E  E  H
|------------------------|-----------------------|
|----5-(5)-5-(5)-5-(5)---|--5-(5)-5-(5)----------|
|----4h=5--4h=5--4h=5----|--4h=5--4h=5-----------|
|----5-(5)-5-(5)-5-(5)---|--5-(5)-5-(5)----------|
|------------------------|-----------------------|
|------------------------|-----------------------|


  Cmaj7                  F/A
  W                       H    Q  Q
|----------------------|-------------|
|-5--------------------|-10----8--6--|
|----------------------|-------------|
|----------------------|-------------|
|----------------------|-------------|
|----------------------|-------------|
|
| W                       W
|----------------------|-------------|
|-0--------------------|--1----------|
|-0--------------------|--2----------|
|-2--------------------|--3----------|
|-3--------------------|-------------|
|----------------------|-------------|
|
| Q  E  E  E  E  E  E     W
|----------------------|-------------|
|----5-(5)-5-(5)-5-(5)-|-------------|
|----4h=5--4h=5--4h=5--|-------------|
|----5-(5)-5-(5)-5-(5)-|-------------|
|----------------------|-------------|
|----------------------|-------------|


 Part One
  Em/G        F     G        Am          F
  W                           W
|--------------------------|-----------------------------|
|-5------------------------|-----------------------------|
|--------------------------|-----------------------------|
|--------------------------|-----------------------------|
|--------------------------|-----------------------------|
|--------------------------|-----------------------------|
|
| H           Q     Q         H          H
|--------------------------|-----------------------------|
|-0-----------1-----3------|--1----------1---------------|
|-0-----------2-----4------|--2----------2---------------|
|-2-----------3-----5------|--2----------3---------------|
|--------------------------|-----------------------------|
|--------------------------|-----------------------------|
|
| Q.   T S S.   E..   S. E   +Q.    S  E   S.  S.  E. S
|--------7------8----------|-----------5-----------------|
|----------8----------5--8-|-(8)---(8)-----8--(6)-/5-----|
|--------------------------|--------------------------7\-|
|--------------------------|-----------------------------|
|--------------------------|-----------------------------|
|--------------------------|-----------------------------|


  Am/E       Bb/F   G        Am/E
  Gtr II
  H          H      H        H
|-----------------|-------------------|
|-1----------3----|-3--------1--------|
|-2----------3----|-4--------2--------|
|-2----------3----|-5--------2--------|
|-----------------|-------------------|
|-----------------|-------------------|
|
| Gtr III
| Q.   +S  S H      Q.   S S E E E E
|-----------------|--------7-4-5-7-8\-|
|-----------------|------5------------|
|-5----(5)---5----|-------------------|
|----------7------|-------------------|
|-----------------|-------------------|
|-----------------|-------------------|


  F/C             Eb/G             D/F#             C#/F
  Q   +E   S   S  Q  +E   S   S    Q  +E     S   S   H
|-5---(5)-(5)--5--3--(3)-(3)--3--|-2--(2)---(2)--2---1--------------|
|-6---(6)-(6)-(6)-4--(4)-(4)-(4)-|-3--(3)---(3)-(3)--1--------------|
|-5---(5)--5--(5)-3--(3)--3--(3)-|-2--(2)----2--(2)--2--------------|
|-7---(7)-(7)-(7)-5--(5)-(5)-(5)-|-4--(4)---(4)-(4)--3--------------|
|--------------------------------|----------------------------------|
|--------------------------------|----------------------------------|
|
| Q.      +S   S  H                Q   S  S  E       T  +Q   T E.
|--------------------------------|----------------------------------|
|--------------------------------|----------------------------------|
|-5-------(5)-----5--------------|----------/9----------------------|
|--------------7-----------------|--------7---------10-(10)--5s7b8r=|
|--------------------------------|----------------------------------|
|--------------------------------|----------------------------------|


  Cmaj7                  EsuEsusEsusEsusEmF Esus4
  W                      Q   E   E   E   E   E      +E
|----------------------|-0--(0)-(0)-(0)-(0)-(0)-----(0)-------|
|-0--------------------|-0--(0)-(0)-(0)-(0)-(0)-----(0)-------|
|-0--------------------|-2--(2)-(2)-(2)--0---2------(2)-------|
|-2--------------------|-2---0---2---3---2--(2)-----(2)-------|
|-3--------------------|--------------------------------------|
|----------------------|--------------------------------------|
|
|                                            |------5-------|
| Q  E  E  E  E  E  E    H           Q       S  S S      S  S
|----------------------|--------------------------------------|
|----5-(5)-5-(5)-5-(5)-|---------------------7--8-9-----10-11-|
|----4h=5--4h=5--4h=5--|--------------------------------------|
|-5--5-(5)-5-(5)-5-(5)-|--------------------------------------|
|----------------------|--------------------------------------|
|----------------------|--------------------------------------|


  Am/E              F          G#           Bb/F
   H                H          H             H
|----------------------------|--------------------------------|
|--1----------------1--------|-4-------------3----------------|
|--2----------------2--------|-5-------------3----------------|
|--2----------------3--------|-6-------------3----------------|
|----------------------------|--------------------------------|
|----------------------------|--------------------------------|
|
|  S   S    E.  S E E. E E.    Q  S S  S. T  E  S.  S.  +S  E
|-------------------8--------|--------11--8s10-\8-------------|
|-10h(11)h(12)-12-8----5-8---|------9--------------11--(11)-9-|
|----------------------------|--------------------------------|
|----------------------------|--------------------------------|
|----------------------------|--------------------------------|
|----------------------------|--------------------------------|


  Eb/G     Bb/F      G#/Eb
  H        H         W
|------------------|-----------------|
|-4--------3-------|-1---------------|
|-3--------3-------|-1---------------|
|-5--------3-------|-1---------------|
|------------------|-----------------|
|------------------|-----------------|
|
|                         >
| Q  +E. S Q.   E    Q  S H    E  S
|-6--(6)-8-6----8\-|-----------------|
|------------------|-9--8-9------11\-|
|------------------|-----------------|
|------------------|-----------------|
|------------------|-----------------|
|------------------|-----------------|


  Cm/G     G#          G#/Eb          Bb/F
  H        H            H             H
|--------------------|--------------------------|
|-4--------4---------|--1-------------3---------|
|-5--------5---------|--1-------------3---------|
|-5--------6---------|--1-------------3---------|
|--------------------|--------------------------|
|--------------------|--------------------------|
|
|       ~~                       ~~
| E. S  H      +E. S   +T  E S.  E  E Q.   S  S
|----8h11-----(11)---|-------8--11-13S6----8-10-|
|-8----------------8-|-(8)-9--------------------|
|--------------------|--------------------------|
|--------------------|--------------------------|
|--------------------|--------------------------|
|--------------------|--------------------------|


  Cm/G            D/F#         G/D G/DE7 E+
   H               H            Q  Q  Q   Q
|----------------------------|----------------|
|--4---------------3---------|--0--0--3---1---|
|--5---------------2---------|--0--0--1--(1)--|
|--5---------------4---------|--0--0--2--(2)--|
|----------------------------|----------------|
|----------------------------|----------------|
|
|  ~~              ~~           ~~
|  Q   S  T  S S.  Q   +E  E    W
|-11--10s11s10-8--10--(10)-8-|-10-------------|
|----------------------------|----------------|
|----------------------------|----------------|
|----------------------------|----------------|
|----------------------------|----------------|
|----------------------------|----------------|


  G/E EsusEm      F      F      F     Am         G        G#m/Eb
  Q    E   E      Q       E      E     H         Q        Q
|-----------------------------------|-------------------------------|
|-0---(0)-(0)-----1------(1)----(1)-|--5---------3--------4---------|
|-0----2---0------2------(2)-----2--|--5---------4--------4---------|
|-2---(2)-(2)-----3-------3-----(3)-|--7---------5--------6---------|
|-----------------------------------|-------------------------------|
|-----------------------------------|-------------------------------|
|
| Q.       T  S S   S E.     S.  E    +Q.   S S.   E S  E   +T  S S
|-------------7-7-----8-------------|---------5---------------------|
|-------------------8--------5---8--|-(8)---6------8-6-/5---(5)-----|
|-----------------------------------|---------------------------8s7-|
|-----------------------------------|-------------------------------|
|-----------------------------------|-------------------------------|
|-----------------------------------|-------------------------------|


  Am/E    Am/E  F    Dm/F  G         Am/E
  Q.       E    Q.    E    H         H
|-0-------(0)---1----(1)-|-3-------------------|
|-1-------(1)---1-----3--|-3---------1---------|
|-2--------2----2----(2)-|-4---------2---------|
|-2-------(2)---3----(3)-|-5---------2---------|
|------------------------|---------------------|
|------------------------|---------------------|
|
| Q   +E.     S H          Q.   T S. E  E E E
|------------------------|--------7-------7-8\-|
|------------------------|-----------9-10------|
|-5---(5)-------5--------|---------------------|
|-------------7----------|---------------------|
|------------------------|---------------------|
|------------------------|---------------------|


  C#m/F    Bm/Eb  Bbm/D          F/E
  H        H      H              H
|-5--------3----|-2--------------1---------|
|-6--------4----|-3--------------1---------|
|-5--------3----|-2--------------2---------|
|-7--------5----|-4--------------2---------|
|---------------|--------------------------|
|---------------|--------------------------|
|
| Q  +E. S H      Q  S S. T T S.    Q.   S
|---------------|--------------------------|
|---------------|--------------------------|
|-5--(5)---5----|---------7h8h9------------|
|--------7------|------7-----------10----7-|
|---------------|--------------------------|
|---------------|--------------------------|


  Em               Bb7
  Gtr IV
  H      E E E E   E S. S.  E. Q  Q
|----------------|-------------------|
|----------------|-------------------|
|------------7-5-|-------------------|
|----------5-----|-8-6--5--/6-----5--|
|----------------|-------------5-----|
|----------------|-------------------|
|
| Gtr II
|     >  >   >     >
| Q   Q  Q   Q     W
|----------------|-------------------|
|-0---0--0---0---|-3-----------------|
|-0---0--0---0---|-1-----------------|
|-2---2--2---2---|-0-----------------|
|----------------|-------------------|
|----------------|-------------------|
|
| Gtr III
| H.         Q     W
|----------------|-------------------|
|----------------|-------------------|
|-5--------------|-------------------|
|----------------|-------------------|
|----------------|-------------------|
|----------------|-------------------|


  Em             Fm
  Gtr IV
  Q  Q  Q   Q    W
|----7---------|-------------|
|----8--8------|-------------|
|-------9---9--|-------------|
|----------10--|-9-----------|
|--------------|-7-----------|
|--------------|-------------|
|
| Gtr II
|    >  >   >    >
| Q  Q  Q   Q    W
|--------------|-------------|
|-0--0--0---0--|-1-----------|
|-0--0--0---0--|-1-----------|
|-2--2--2---2--|-3-----------|
|--------------|-------------|
|--------------|-------------|
|
| Gtr III
| W              H    Q.   E
|--------------|-----------7-|
|--------------|-----------9-|
|--------------|-------------|
|--------------|-------------|
|--------------|-------------|
|--------------|-------------|


 Part 2 - Guitar Solo
  Gtr III
   E  E E.  S.  E  S.  E E    E  S.  E  +S   S S. S. S E +S  S.
|--8-------------------7---|------------------------------------|
|-10-10----10--10-10--10-8-|------------------------------------|
|-----9---------9----------|--9----------------9--9----9-(9)-7--|
|--------------------------|-10-10--10-(10)-10-------9-9-(9)----|
|--------------------------|----12--12-(12)---------------------|
|--------------------------|------------------------------------|


  E S. E T +E  Q  S.  S   T    T   T
|--------5-(5)-8--8--10--12h==13p=12-|
|------5-5-(5)-6-----13-(13)-(13)----|
|-7-5--------------------------------|
|------------------------------------|
|------------------------------------|
|--------------4---------------------|


   +E    S.   E   E  E  E  +T    E   +T   S  T
|-(12)-(12)-(12)-------------------------------|
|------(13)------13-13-13-(13)--------------12-|
|-----------(12)----14---------(14)-(14)-14----|
|----------------------------------------------|
|----------------------------------------------|
|----------------------------------------------|


          |--3---|                  |--3---|
  S.  S   S   S  S.  S.  S. S.  S   S   S  E +S. S.
|-8---8---8p==7--5---5---5--6---6---6p==5--3-(3)-5--|
|-5--(5)-(5)-(5)-5--(5)-(5)-4--(4)-(4)-(4)-4-(4)----|
|---------------------------------------------------|
|---------------------------------------------------|
|---------------------------------------------------|
|---------------------------------------------------|


   |---3---|   |---3---|   |---3---|
   S   S   S   S   S   S   S   S   S  +E   E
|--5---5---5---5---5---5---5---5---3--(3)-----|
|------------------------------------------3--|
|---------------------------------------------|
|---------------------------------------------|
|-(5)-(5)-(5)-(4)-(4)-(4)-(3)-(3)-(3)-(3)-(3)-|
|---------------------------------------------|


  Gsus4/C    C               Csus4Fm/C    FmG7DBb7 Db7
             |-3-|
   E.  S  Q  E E E S S. S.    E E  E. +E  E S.  S.  E
|------------3-3-3-3-3--3--|-^3---^4--(4)-4-7--10--13-|
|-^3---5--5--5-5-5-5-5-----|-^6-6-^6--(6)-6-6---9--12-|
|-^5--(5)----5-5-5-5-5-----|-^5---^5--(5)-7-7--10--13-|
|-^5--(5)------------------|--------------------------|
|-^3--(3)------------------|--------------------------|
|--------------------------|--------------------------|


  C/A               Fm      Gsus4        G#5/F       Csus2/Bb
                                                     |--3---|
    E.   E    E   S   S. S.  S.  S.  E     E. E E S. E  E   E  S S. S
|-^12--(12)-(12)----^-8--8--10--10--11-|-^11--8-8-8--8--8---8--6----8-|
|-^13---13---13--13-^-9-----13---------|-^-9---------------------9----|
|-^14--(14)-(14)----^10-----12---------|------8-8----7-(7)-(7)--------|
|--------------------------------------|------------------------------|
|--------------------------------------|-^-8--------------------------|
|--------------------------------------|-------------6-(6)-(6)--------|


  Cm/Bb Eb
        |-3--|  |--3---|
  T  E. E. E E. E  E.  E  S. S   E  S.  E  S.S E  S.  E  E +T
|-8p=6--6--6-8--6--6---6--8--4-|-4--4---4--4h6-4--4---4--6-(6)-|
|-------8----------------------|-------------------------------|
|-8-(8)-8----------------------|-------------------------------|
|------------------------------|-------------------------------|
|---------------5-(5)-(5)------|-4-(4)-(4)-----4-(4)-(4)-------|
|-6-(6)------------------------|-------------------------------|


                        G#                  G#
  S.  E  +T   E  +T  S.   E  S.  S  S.  E     E  E  S.  E  +T   E.  E  S.  S.
|--------------------8--^11-11--11-10-----|-^11-11-11--11-(11)-11-------------|
|-8---8--(8)--8--(8)----^13------------13-|-^13--------------------11-11--11--|
|-----------------------^13---------------|-^13-------------------------------|
|-----------------------------------------|-----------------------------------|
|-----------------------------------------|---------------------8---8---------|
|-8--(8)-(8)-(8)-(8)----------------------|-----------------------------------|


  C#maj7susC#maC/EFD+7        Bm7/F#Gadd9 F/D       F/D
  E +T  S. E E E E S.  S. S   E  E  E  E  S  S.  S. S.  S. S
|-8-(8)-8--8-8-8-8-6---6--5-|-5--5--5-(5)-5--5---5--5---7--7-|
|-7-(7)----6---5---7--(7)---|-3-(3)-3-(3)-6-(6)-(6)-6--(6)-5-|
|-6-(6)----6---5---5--(5)---|-4-(4)-4-(4)-7-(7)-(7)-7--(7)-5-|
|-5-(5)---------------------|-4-(4)-5-(5)--------------------|
|----------8---7---5--(5)---|--------------------------------|
|---------------------------|-------3-(3)--------------------|


  Cmaj7/AC/G      C5/A   Dsus4/E
  S.  S. E  S. S. S.  E   S.  S.  S.
|-7---7--8--8--8--8---8--10--10--10--|
|-5--(5)-5-(5)----8--(8)--8--(8)-(8)-|
|-5--(5)-5-(5)----5--(5)--7--(7)-(7)-|
|-6--(6)-5-(5)----5--(5)--7--(7)-(7)-|
|-----------------0--(0)--7--(7)-(7)-|
|------------------------------------|


  Fmaj7    F            F5/G
   S.   S.  S.   E   S.  S.  S  T  S  S.  S  T  S
|-12---12---8----8--12--13--12-10-----------10-13-|
|-10--(10)-10--(10)-----13--------13-12--13-------|
|-10--(10)-10--(10)-----10------------------------|
|-10--(10)-10--(10)-----10------------------------|
|--8---(8)--8---(8)-----10------------------------|
|-------------------------------------------------|


  A5
   E   E.  S.  T  T  T  S.  S  S.  S.  S  T  S
|-12--12--12--12h13p12-12--12-12--12--12-12s15-|
|-10--10----------------9----------------------|
|--9---9---------------------------------------|
|----------------------------------------------|
|-12-(12)--------------------------------------|
|----------------------------------------------|


  C
   E.  S  S.  S  S.  T   E    S.  E  E
|-12--12-12--10------------------10-12-|
|--8------------13--13p=12---13--------|
|--9-----------------------------------|
|-10----------------14-(14)-(14)-------|
|--------------------------------------|
|--------------------------------------|


              Bbmaj7sus4           Dsus2/A          Dm7/A
               >
  E. S S. S S  E +T   S.  S.  E.   E  S.  S. S. T S Q.   E
|----5-5--7-8-^5-(5)--5---5---3--|-5--5---5--5--7h8-8------|
|-------------^4-(4)-(4)-(4)-(4)-|-5-(5)-(5)--------6------|
|-------------^3-(3)-(3)-(3)-(3)-|-7-(7)-(7)--------7------|
|--------------------------------|-7-(7)-(7)--------7------|
|--------------------------------|-------------------------|
|--------------------------------|-----------------------3-|


     C/G
  Gtr II
     <         >
  Q  Q        +H                     W
|---------------------------------|-----------------------------|
|----5--------(5)-----------------|-----------------------------|
|----5--------(5)-----------------|-----------------------------|
|----5--------(5)-----------------|-----------------------------|
|----3--------(3)-----------------|-----------------------------|
|---------------------------------|-----------------------------|
|
| Gtr III
| Q  S. S. S.     E S. S.  S   S.    Q  S.  E  +S  E. S S  S S.
|-8---------------8-8--8--10--12--|-------------------8-8-------|
|----5--5--5--------------13-(13)-|-13--5---5--(5)-5------11-9--|
|----5--5--5----------------------|-----5--(5)-----5------------|
|----5--5--5----------------------|-----5--(5)-----5------------|
|---------------------------------|-----------------------------|
|---------------------------------|-----------------------------|


  E5/C
  <
  H.                          +Q
|----------------------------------|
|-5---------------------------(5)--|
|-4---------------------------(4)--|
|-2---------------------------(2)--|
|-3---------------------------(3)--|
|----------------------------------|
|
| S. S.  S   E.  S  S  E   S   Q
|-3--3--(3)--3---3--3--3--(3)--3---|
|-5--5--(5)-(5)-(5)-5-(5)-(5)--5---|
|-4--4--(4)-(4)-(4)-4-(4)-(4)--4---|
|----------------------------------|
|-3--3---3--(3)-(3)-3-(3)--3---3---|
|----------------------------------|
|
| Gtr V
| W
|----------------------------------|
|----------------------------------|
|----------------------------------|
|----------------------------------|
|----------------------------------|
|----------------------------------|


 Part 3 - Harmonica Solo
                                        E7/C
  +H.                                   Q
|----------------------------------------------------|
|-(5)-----------------------------------3------------|
|-(4)-----------------------------------1------------|
|-(2)-----------------------------------2------------|
|-(3)-----------------------------------3------------|
|----------------------------------------------------|
|
|  S  S. S +S.   S  E     Q             Q
|-----3--3-(3)---3--1-----0--------------------------|
|----------------------------------------------------|
|----------------------------------------------------|
|----------------------------------------------------|
|----------------------------------------------------|
|----------------------------------------------------|
|
|  Q           S S.   S S   S.  T  S  S    S  S.  S
|------------------------------16p15-13---12---------|
|----------------5----6-8---9----------------15--13s=|
|----------------------------------------------------|
|----------------------------------------------------|
|----------------------------------------------------|
|----------------------------------------------------|


  Am/E           D5/C      Dm6add9
   H              Q        Q
|---------------------------------------|
|--1--------------3--------5------------|
|--2--------------2--------4------------|
|--2--------------0--------3------------|
|--3--------------3--------5------------|
|---------------------------------------|
|
|  W
|---------------------------------------|
|---------------------------------------|
|---------------------------------------|
|---------------------------------------|
|---------------------------------------|
|---------------------------------------|
|
|  Q   +E.  T  T  E.  +S.    S  S.  +S
|---------------------------------------|
|-12--(12)----12s13--(13)\--------------|
|----------12----------------9-12--(12)-|
|---------------------------------------|
|---------------------------------------|
|---------------------------------------|


  G#/C            Bb
    H             H
|----------------------------------------|
|---4-------------3----------------------|
|---5-------------3----------------------|
|---6-------------3----------------------|
|---3-------------1----------------------|
|----------------------------------------|
|
|   W
|----------------------------------------|
|----------------------------------------|
|----------------------------------------|
|----------------------------------------|
|----------------------------------------|
|----------------------------------------|
|
|   >
|  +Q   E  S.   E    E.  T  T  S.  T   T
|-------------/11s==10--11---------------|
|--------------------------13-11--(9)-11-|
|-(12)----13-----------------------------|
|----------------------------------------|
|----------------------------------------|
|----------------------------------------|


  Eb                     Bb/D
    H                     H
|-------------------------1-------------|
|---4---------------------3-------------|
|---3---------------------3-------------|
|---5---------------------0-------------|
|---6-----------------------------------|
|---------------------------------------|
|
|   W
|---------------------------------------|
|---------------------------------------|
|---------------------------------------|
|---------------------------------------|
|---------------------------------------|
|---------------------------------------|
|
|  +Q    +S   S.  +S   T  S  E  +Q    S
|---------------------------------------|
|-(11)--(11)-13--(13)-------11-(11)-----|
|---------------------12-13----------12-|
|---------------------------------------|
|---------------------------------------|
|---------------------------------------|


  C#maj7
   W
|-----------------------------------------|
|--1--------------------------------------|
|--1--------------------------------------|
|--3--------------------------------------|
|--4--------------------------------------|
|-----------------------------------------|
|
|  Q.          E   E   E     Q
|-------------13\-13S==8-----8------------|
|-----------------------------------------|
|-----------------------------------------|
|-----------------------------------------|
|-----------------------------------------|
|-----------------------------------------|
|
|  E   +E   E  E   E  +S.  S    S  S  +S.
|-----------------------------------------|
|---------------------------------11-(11)-|
|-13--(13)\---12--13-(13)-13---13---------|
|-----------------------------------------|
|-----------------------------------------|
|-----------------------------------------|


  Cm                                      Cm                 Dmadd11
   W                                        H                H
|---------------------------------------|--------------------------------------|
|--4------------------------------------|---4----------------3-----------------|
|--5------------------------------------|---5----------------0-----------------|
|--5------------------------------------|---5----------------3-----------------|
|--3------------------------------------|---3----------------5-----------------|
|---------------------------------------|--------------------------------------|
|
|  W                                        W
|---------------------------------------|--------------------------------------|
|---------------------------------------|--------------------------------------|
|---------------------------------------|--------------------------------------|
|---------------------------------------|--------------------------------------|
|---------------------------------------|--------------------------------------|
|---------------------------------------|--------------------------------------|
|
|  S  S  S.  S  S  S  +S.  Q.   T  T  S     E  +S.  E  S.  E    Q   +T   S  S.
|-----------------11-(11)-11------------|-------------11--13---------------10--|
|-----------13-13-----------------11----|----------13----------11--(11)-13-----|
|-13-12-12---------------------------12-|-/13-(13)-----------------------------|
|---------------------------------------|--------------------------------------|
|---------------------------------------|--------------------------------------|
|---------------------------------------|--------------------------------------|


  Cm/A                   AmadD11/C   G/D   D         E/B
    H                     Q  Q        H    Q         Q
|----------------------------------|------------------------------|
|---1---------------------1--3-----|--3----3---------0------------|
|---0---------------------2--2-----|--4----2---------1------------|
|---1---------------------0--4-----|--5----4---------2------------|
|---0---------------------3--5-----|--5----5---------2------------|
|----------------------------------|------------------------------|
|
|   W                                 W
|----------------------------------|------------------------------|
|----------------------------------|------------------------------|
|----------------------------------|------------------------------|
|----------------------------------|------------------------------|
|----------------------------------|------------------------------|
|----------------------------------|------------------------------|
|
|   E  +E   T  T  S.  S.  Q  E.  S    H    E.  T  S.    T  E  +T
|-/11-(11)-10s11s10------10--------|-10-------11-12----20-19-(19)-|
|--------------------13---------13-|------------------------------|
|----------------------------------|------------------------------|
|----------------------------------|------------------------------|
|----------------------------------|------------------------------|
|----------------------------------|------------------------------|


 Outro
  Cmaj7          Am/F        G        Am         F        G
    H            Q           Q         H         Q        Q
|----------------0-----------3------|--5---------1--------3----------|
|---0------------1-----------3------|--5---------1--------3----------|
|---0------------2-----------4------|--5---------2--------4----------|
|---2------------3-----------5------|--7---------3--------5----------|
|-----------------------------------|--------------------------------|
|-----------------------------------|--------------------------------|
|
|   Q.     T S S   S      E.   S. E   +Q.   S S.   E S  E   +T  S S
|------------7-7----------8---------|---------5----------------------|
|------------------8-----------5--8-|-(8)---6------8-6-/5---(5)------|
|-----------------------------------|---------------------------8s7--|
|-----------------------------------|--------------------------------|
|-----------------------------------|--------------------------------|
|-----------------------------------|--------------------------------|
|
|       >
|       ~~
|  +S   H             +E.    Q         W
|-(19)------------------------------|--------------------------------|
|------17------------(17)-----------|--------------------------------|
|-----------------------------------|--------------------------------|
|-----------------------------------|--------------------------------|
|-----------------------------------|--------------------------------|
|-----------------------------------|--------------------------------|


  Am/E          G#/C   Em/C   Esus4
  Gtr II
  H             H      Q  +S  E.        +H
|-0------------------|----------------------------|
|-1-------------1----|-5--(5)-1---------(1)-------|
|-2-------------1----|-4--(4)-2---------(2)-------|
|-2-------------1----|-5--(5)-2---------(2)-------|
|---------------3----|-3--(3)-3---------(3)-------|
|--------------------|----------------------------|
|
| Gtr III
| Q  +E  +T  S. H      Q   S.    T T S.  E  E E E
|--------------------|---------------7---4--5-7-8-|
|--------------------|-----------5----------------|
|-5--(5)-(5)----5----|----------------------------|
|------------7-------|----------------------------|
|--------------------|----------------------------|
|--------------------|----------------------------|


  F        Eb6    D7
                  >
  H        H      W
|-1--------8----|-8-----------------------|
|-1--------8----|-7-----------------------|
|-2--------8----|-7-----------------------|
|-3-------------|-------------------------|
|----------6----|-5-----------------------|
|---------------|-------------------------|
|
| Q  +E. S H      Q  S S  E Q  +E  +T  S.
|---------------|-------------------------|
|---------------|-------------------------|
|-5--(5)---5----|--------/7-5--(5)-(5)----|
|--------7------|------7---------------7--|
|---------------|-------------------------|
|---------------|-------------------------|


     C     C    C    Fm6/G
                        >
  Q   Q     Q   Q    Q  H                 Q
|------------------|-1--1--------------------------|
|-----1-----1---1--|-1--1--------------------------|
|-----0-----0---0--|-1--1--------------------------|
|-----2-----2---2--|-0--0--------------------------|
|-----3-----3---3--|-3--3--------------------------|
|------------------|-------------------------------|
|
| Q  +E  E  E E Q    H     T  S  S  T  S.    E  S.
|------------------|---------13-12-10-------10-15--|
|----------^5------|------------------13-----------|
|-5--(5)---^5---5--|-------------------------------|
|--------5-^5-5----|-------------------------------|
|------------------|-------------------------------|
|------------------|-------------------------------|


  C            C         C      C     Ebmaj7sus4/C
                                         >
   Q           Q         Q      Q     Q  H.
|-----------------------------------|-------------------------|
|--1-----------1---------1------1---|-3--3--------------------|
|--0-----------0---------0------0---|-1--1--------------------|
|--2-----------2---------2------2---|-1--1--------------------|
|--3-----------3---------3------3---|-3--3--------------------|
|-----------------------------------|-------------------------|
|
|                      >
|  E.  +T   S.    +E   Q    +Q    S   H       S.  S.  S  E  E
|-10--(10)-12----(12)-12---(12)-----|--------13--12-----------|
|-----------------------------------|----------------15-13-12-|
|-----------------------------------|-------------------------|
|-----------------------------------|-------------------------|
|-----------------------------------|-------------------------|
|-----------------------------------|-------------------------|


               Asus4
                         >
  Q         S. S +S.     H      +W               +W
|-----------------------------|----------------|----------------*|
|--------------3-(3)-----3----|-(3)------------|-(3)------------*|
|--------------2-(2)-----2----|-(2)------------|-(2)------------*|
|--------------2-(2)-----2----|-(2)------------|-(2)------------*|
|--------------0-(0)-----0----|-(0)------------|-(0)------------*|
|-----------------------------|----------------|----------------*|
|
|                        >             >
| S.  E  E     E     +T  H      +H     H         +H        H
|-8--10-12\----7-----(7)-7----|-(7)------------|----------------*|
|-----------------------------|----------------|----------------*|
|-----------------------------|--------4tr5----|-(4tr5)---------*|
|-----------------------------|----------------|----------------*|
|-----------------------------|----------------|----------------*|
|-----------------------------|----------------|----------------*|
