  Q=80
  Gmaj7             Dsus4     N.C.
 5/4
  Gtr I
   E S S S S S S Q   S E.Q    E E a  Q  Q.    E  Q
|----------------------5p3--|-----------------------|
|-^0----------------^3------|-----------------------|
|-^0-0---0---0---0--^0------|-0------0--------0-----|
|-^4---4---4---4----^0------|-5p4-5/-7--4-----5--4--|
|---------------------------|-----------------------|
|-^3------------------------|-----------------------|
   H             Q   H        Q      H      E Q.


 7/4
  Q    Q   E  E  Q   E  E  E  Q.
|---------15----14-----15----12-----|
|------------15-----15----15--------|
|-2b4r=0----------------------------|
|-----------------------------------|
|-----------------------------------|
|-----------------------------------|


  G6                                 N.C.            C5/D            G/D
 4/4
  E E E E Q  E E   E E Q  S S Q.      E  Q  E H       E  E E E E   E Q
|------------0-0-|-0---------------|----10----7----|-^8--8-8-8-8/-10-7---|
|-0-0-0---0--0-0-|-0-0-0--3--------|-12-----8------|-^8--8-8-8-8/-10-0---|
|-4-5-5p4-4--4-4-|-5-5-4----4------|---------------|-^0--0-0-0-0-----0---|
|-5-5-5---5--5-5-|-5-5-5------5----|---------------|-^0--------------0---|
|----------------|-----------------|---------------|---------------------|
|----------------|-----------------|---------------|---------------------|
                                                      H.             Q


  Dsus4III       G6
   E E S E. S E. E E   E E Q  H
|-^5p3-0-3-----------|-------------|
|-^3-----0--5-3--0-0-|-0-0----0----|
|-^0-----0-------4-4-|-5-5p4--4----|
|-^0-------------5-5-|-5-5----5----|
|--------------------|-------------|
|--------------------|-------------|
   W


  N.C.           G6             N.C.
  E E E E H      E E E E H      E E E E +H
|--------------|--------------|----------------|
|-0h1-1p0-3----|-0-0-0-0-0----|-0h1-1p0-(0)----|
|--------------|-4-4-4-4-4----|----------------|
|-0h2-2p0-4----|-5-5-5-5-5----|-0h2-2p0-(0)----|
|--------------|--------------|----------------|
|--------------|--------------|----------------|


  E5/D     G
 6/4                        4/4
    H      E E E E E E E E   E E E E E E E E   E E E E E E E E
|-<12>---------------------|-----------------|------------------|
|----------------------0---|-------------0---|-------------0----|
|-<12>---------0-----------|-----0-----------|-----0------------|
|-<12>-------0---0---0---0-|---0---0---0---0-|---0---0---0---0--|
|--------------------------|-----------------|------------------|
|-------3--3-------3-------|-3-------3-------|-3-------3--------|
    Q   Q  W


  Q=90              Q=100             Q=110       Q.=80
  Bm/D
  E E E E E E E E   E E E E E E E E   E E E E E E E E   E E E E E E Q
|-----------------|-----------------|-----------------|----------------||
|---3-----3-----3-|-----3-----3-----|-3-----3-----3---|---3-----3------||
|-----4-----4-----|-4-----4-----4---|---4-----4-----4-|-----4-----4----||
|-0-----0-----0---|---0-----0-----0-|-----0-----0-----|-0-----0-----0--||
|-----------------|-----------------|-----------------|----------------||
|-----------------|-----------------|-----------------|----------------||


    Q=90
    N.C.                                       G5
   4/4
     Q   E E  E E  E E   E E E E E E E E   E E  H.
||---------------------|-----------------|------------|
||o-----13---12---10---|-8---7---8---3---|-5---^3-----|
||---------0----0----0-|---0---0---0---0-|---0-^0-----|
||--12-----------------|-----------------|-----^0-----|
||o-----12---10----9---|-7---5---7---2---|-3----------|
||---------------------|-----------------|-----^3-----|
     Q   Q    Q    Q     Q   Q   Q   Q     Q    H.


  N.C.
 9/8                    4/4
  E  E E E  E E E  E E   Q  E E E E E E
|----------------------|----------------|
|------3------3------3-|----8---7---5---|
|------0------0------0-|-7----0---0---0-|
|----0------0------0---|----------------|
|----------------------|----7---5---3---|
|-3------3------3------|----------------|
  Q.     Q.     Q.       Q  Q   Q   Q


  E E E E E E E E    E E   Q   E  E  E  E
|-----------------|-----------------------|
|-7---5---3---7---|-10---^13-----13----13-|
|---0---0---0---0-|----0-^-0------0-----0-|
|-----------------|-----------------------|
|-5---3---2---5---|--9---^12--12----12----|
|-----------------|-----------------------|
  Q   Q   Q   Q      Q     Q   Q     Q


   E  H..         Q  E E E E E E    E E E E E E  E E
|---------------|----------------|--------------^8---|
|----13---------|-3--5---8---7---|-10---8---5---^8---|
|-----0---------|------0---0---0-|----0---0---0-^0-0-|
|---------------|----------------|--------------^7---|
|-12------------|----3---7---5---|--9---7---3--------|
|---------------|----------------|-------------------|
   W              Q  Q   Q   Q      Q   Q   Q    Q


  E E  E E   Q    Q     Q   H.
|-7--------^12--^10--|-^8--10-----|
|-----10--------^-0--|-^0--^0-----|
|---0----0---0----0--|-^0--^0-----|
|-5--------^10--^-9--|-^0--^9-----|
|------9-------------|------------|
|--------------------|------------|
  Q    Q     Q    Q     Q   H.


 9/8                       4/4
  E  E  E E  E  E E  E  E    Q   E E  E E  E E
|------10------10------10-|--------------------|
|-------------------------|-----13---12---10---|
|----0-------0-------0----|--------0----0----0-|
|-9-------9-------9-------|-12-----------------|
|-------------------------|-----12---10----9---|
|-------------------------|--------------------|
  Q.      Q.      Q.         Q   Q    Q    Q


                         Dm7/G
  E E  E E E E E E   E E  E E E E +Q
|------------------|-----^1h3-1--------|
|-8---10---8---3---|-5---^1-----3-(3)--|
|---0----0---0---0-|---0-^2------------|
|------------------|-----^0------------|
|-7----9---7---2---|-3-----------------|
|------------------|-----^3------------|
  Q    Q   Q   Q     Q    H.


            Ebmaj7/C              Ebmaj7/D      G/D(tyN.C.)
  Q  E E Q    Q    Q  Q  E E Q      Q   Q  E  E  Q
|--------0--^10--|-8---------0--|-^10---8-------^7--|
|-4--5------^-8--|----4--5------|-^-8------8-10-^8--|
|------0----^-8--|---------0----|-^-8-----------^7--|
|-----------^10--|--------------|-^-0-----------^0--|
|----3-----------|-------3------|-------------------|
|----------------|--------------|-------------------|
  Q  H        Q    H     H          H.           Q


   E  E E E E E Q    Q  E E E E E E
|---------7--------|----8---7---5---|
|-----8-------8----|----0---0---0---|
|--7----7---7---7--|-7----0---0---0-|
|-(0)--------------|----0---0---0---|
|------------------|----------------|
|------------------|----------------|
  +W                 Q  Q   Q   Q


                                             1.
      Am/D                  Cm/D                Am7 G/D Em    Em/CGmaj7/B
  E E  E  E E E E E    E  E  E  E E E +Q     Q  E E E E  Q     Q   Q  E E E E
|-----^5--------5---|----------------------|----8---7-------|-----------------|
|-8---^5----5-------|--5----^4----4--------|----8---0---^8--|-^5--^3------3---|
|---0-^5--5---5---5-|-----5-^5--5---5-(5)--|-7----0---0-^0--|-^0--^0--------0-|
|-0---^0------------|-(0)---^0-------------|----7---0-------|-----^4----4-----|
|-------------------|----------------------|------------^7--|-^3--^2----------|
|-------------------|----------------------|----------------|---------3-------|
  Q    H.             +Q     H.              Q  Q   Q    Q     Q   Q  H


                                        2. Q=80
                                           Am7 G/D(Am/D 2Em/C  Dadd11/C
  E E E E E E E E   E E E E E E E E     Q   Q   Q   Q     H     H
|-----------------|------------------||----^8--^7------|-------------*|
|-----3-------3---|-----3-------3---o||----^8--^8--^5--|-^5----^3----*|
|-------0-------0-|-------0-------0--||-7--^0--^7--^5--|-^0----^0----*|
|---4-------4-----|---4-------4------||----^7--^0--^0--|-------^4----*|
|-----------------|-----------------o||----------------|-^3----------*|
|-3-------3-------|-3-------3--------||----------------|-------^3----*|
  H       H         H       H           Q   Q   Q   Q     H     H


Duration Legend
---------------
W - whole; H - half; Q - quarter; E - 8th; S - 16th; T - 32nd; X - 64th; a - acciaccatura
+ - note tied to previous; . - note dotted; .. - note double dotted
Uncapitalized letters represent notes that are staccato (1/2 duration)
Irregular groupings are notated above the duration line
Duration letters will always appear directly above the note/fret number it represents the
duration for.  Duration letters with no fret number below them represent rests.  Multi-
bar rests are notated in the form Wxn, where n is the number of bars to rest for.  Low
melody durations appear below the staff

Tablature Legend
----------------
 h   - hammer-on
 p   - pull-off
 b   - bend
 pb  - pre-bend
 r   - bend release (if no number after the r, then release immediately)
 /\  - slide into or out of (from/to "nowhere")
 s   - legato slide
 S   - shift slide
<n> - natural harmonic
[n]  - artificial harmonic
n(n) - tapped harmonic
 ~   - vibrato
 tr  - trill
 T   - tap
 TP  - trem. picking
 PM  - palm muting
\n/  - tremolo bar dip; n = amount to dip
 \n  - tremolo bar down
 n/  - tremolo bar up
/n\  - tremolo bar inverted dip
 =   - hold bend; also acts as connecting device for hammers/pulls
 <> - volume swell (louder/softer)
 x   - on rhythm slash represents muted slash
 o   - on rhythm slash represents single note slash

Misc Legend
-----------
 |  - bar
||  - double bar
||o - repeat start
o|| - repeat end
*|  - double bar (ending)
 :  - bar (freetime)
 $  - Segno
 &  - Coda
Tempo markers - <E/E./Q/Q./H/H.> = BPM(8/16=s8/s16), where s8 = swing 8ths, s16 = swing 16ths
