[Solo 1]

e|-14~~~~~~~--12--14b(15)r(14)---------------------------------------------------|
B|-----------------------------15b(17)~~~~~--15-14---14--------------------------|
G|------------------------------------------------------14-----------------------|
D|---------------------------------------------------------14~~~~~---12~~~~~~~~~-|
A|-------------------------------------------------------------------------------|
E|-------------------------------------------------------------------------------|

e|-x--14b(15)r(14)p12------------------------------------------------------------|
B|--------------------15b(17)~~~--15p14------------------------------------------|
G|--------------------------------------14--------------/12~~~~~----11-----------|
D|-----------------------------------------14/12-11-9-7-----------------14---12--|
A|-------------------------------------------------------------------------------|
E|-------------------------------------------------------------------------------|

e|---------------------------------------------15-14-12-------------------|
B|------------------------------------------------------15-12-------------|
G|-11/9-9---7~~~~~~--9p7---7-9-11---(11)b(12)-----------------12----------|
D|-----------------------9---------------------------------------12~~~~~~-|
A|------------------------------------------------------------------------|
E|------------------------------------------------------------------------|

e|-------------------------------------------------------------|
B|-------------------------------------------------------------|
G|-----------------------------9b(11)~~~--9p7h9----------------|
D|-10/9~~~~~~-10/7~~~~~~~---------------------------7/9/7~~~~~~|
A|-------------------------------------------------------------|
E|-------------------------------------------------------------|


[Solo 2]

e|---------------------------------------------------------------------------------------10-|
B|------------------------------------------------------10----10-10-12-12b(15)~~~--10-12----|
G|/7--9-9b(11)~~~~~~~9b(11)~~~r9p7-9~~~--7---7------/11----11-------------------------------|
D|-----------------------------------------9------------------------------------------------|
A|------------------------------------------------------------------------------------------|
E|------------------------------------------------------------------------------------------|

e|---------------------------------------------------------------------|
B|-----------------------------10p7---7--------------------------------|
G|-7--9-9b(11)r9p7------------------9---9-7------------------7~~-------|
D|-----------------9~~~~~~~~~~--------------9~~~~~----7-7--9-----9p7-9-|
A|-------------------------------------------------/9------------------|
E|---------------------------------------------------------------------|

e|-7h9-9b(10)~~~~-7----7-7~~~~-----------------------------------------------------|
B|------------------10---------10p7---7-----10p7---7-------------------------------|
G|----------------------------------9------------9---9-7---9-7---------------------|
D|-------------------------------------------------------9-----9-7-----------------|
A|-----------------------------------------------------------------9-8-7-5---5~~~~-|
E|-------------------------------------------------------------------------7-------|

e|-----------------------7---------------------------------------------------------|
B|-------------------------10p7-----7----------------------------------------------|
G|-7-7-7--------9b(11)----------9-9---9p7--9-7-------------------------------------|
D|---------------------------------------9-----9p7---------------------------7-7-7-|
A|-------------------------------------------------9-9\7-5-7p5--5---7-----/9-------|
E|------------------------------------------------------------7-------5h7----------|

e|-------------------7------------------------------7------------------------------------|
B|-----------------7---10--------7----------------7---10p7---7---------------------------|
G|----7---7-9b(11)--------9b(11)---7---9---9b(11)----------9---9-7---9-7-----------------|
D|-9p7--9----------------------------------------------------------9-----9-7-------------|
A|---------------------------------------------------------------------------9-8-7/5---5-|
E|-----------------------------------------------------------------------------------7---|

e|----------------------------------------------------------------------7------7-|
B|-7---------------7-------------7-------7--------------------------------10p7---|
G|-7-------------7-7-------------7-------7----9b(11)>>>r9p7---7-9----------------|
D|-7---9---------7-7---9---------7---9-------9--------------9--------------------|
A|-------------------------------------------------------------------------------|
E|-------------------------------------------------------------------------------|

                                                                  (P.M.)
e|-------------------------------------------------------------------------------------|
B|------------10p7---7---------------------------------------------------7-------7-----|
G|-9b(11)----------9---9-7-9p7---7---------------------------7-----------7-----x-7-----|
D|-----------------------------9---9p7-9p7---7-----------9---------(999)-7-----x-7---7-|
A|-----------------------------------------9---9-8-7/5---------------------------------|
E|-----------------------------------------------------7-------------------------------|

e|--------------------------------------------------------------------------------|
B|-x---7-------7---7-----------7---7-----------7---7------7--7--7---x-7---7-7-7-7-|
G|-x---7-------7---7-----------7---7-----------7---7------7--7--7---x-7---7-7-7-7-|
D|---------9-----------9---9-----------9---9-----------9--------------------------|
A|--------------------------------------------------------------------------------|
E|--------------------------------------------------------------------------------|

e|-----------------19---21-21b(22)---21pb(22)---21---21pb(22)r21--21pb(22)-21b(22)r21-19h20p19-|
B|-17-17b(19)----------------------------------------------------------------------------------|
G|---------------------------------------------------------------------------------------------|
D|---------------------------------------------------------------------------------------------|
A|---------------------------------------------------------------------------------------------|
E|---------------------------------------------------------------------------------------------|

e|-----------------------------------------------------------------|
B|-/17-17-17b(19)---17b(19)---17-15-17-----15--17-17b(19)r17p15----|
G|--------------------------------------------------------------16-|
D|-----------------------------------------------------------------|
A|-----------------------------------------------------------------|
E|-----------------------------------------------------------------|

e|----------------------|
B|-------------------12-|
G|-/14-16---------------|
D|--------14---12-------|
A|----------------14----|
E|----------------------|
