Cinema Paradiso (Love Theme)
Tuning: DADGBe


[Part 1]

e|---------------------------------------------------------------------------|
B|------------------------1--------------------------------------------------|
G|--3----------3-2-0----2------------------------------2-----5----3--2--3----|
D|-----0---1------------------3---1--1---0------0---3------------------------|
A|---------3-------------------------1-------0-------------------------------|
D|--5-------------------3------------------------------------5---------------|

e|------------------------1------------------3-------------------------------|
B|--3-----3------------------4-------------------6---6---4---3--------3------|
G|-------------0------0------------------5------------------------5---3---3--|
D|----------------4----------------------------------------------------------|
A|---------------------------3---1---0---------------------------------------|
D|--3----------1------0----------------------5-------4-------0--------5------|


                              1______________________________________________| 
e|----------------------------|----------------------------------------------|
B|--1-------------------------|----------------------------------------------|
G|--0---3--2------0-----------|--2---3----2----------------------------------|
D|------------3---------------|-----------------2------4---------------------|
A|----------------------------|----------------------------------------------|
D|--3-------------1-----2-----|-----------0----------------------------------|

  2__________________________________________________________________________
e|---------------------------------------------------------------------------|
B|-----------------------------4---------------3-------------1------3--4-----|
G|------2--3---3h2---------2-------2-------2-------2-------------------------|
D|---0------------------0----0---0---0---0---0---0---0-----------------------|
A|---------------------------------------------------------------------------|
D|-------------0-----------------------0-------------------------------------|

  _______________________
e|-----1----3----5---6----|
B|------------------------|
G|------------------------|
D|------------------------|
A|------------------------|
D|------------------------|


[Part 2]

e|-----6----------------6--5---3---------------------------------------------|
B|--------------3---4----------------10----13------------4----4---------3----|
G|----------3-------3----------------10---------10-----------------3---------|
D|----------3-------5----------------10----------------------------3---------|
A|------------------3-----------------------------------------1--------------|
D|--5------------------------------------------------------------------------|

e|-----------------------5---8------6-5--6------10---10----------------------|
B|------------3------6----------------------------------------8---7-----8----|
G|--3---------3--------------------------------------------------------------|
D|--3---------3--------------5-----------------------------------------------|
A|--------0-------------------------------------8-------------6---------5----|
D|---------------------------------------------------------------------------|

e|---13-----11---------------------------15---13------13----11------10-------|
B|-----------------------------------13----------------------------10--------|
G|-----------------0--------0-------------------------------------11---------|
D|---------------------------------------------------------------12----------|
A|---------------------------------------------------------------------------|
D|----------10---------8-------7--------------------0------------------------|

e|--------------------8-----------------------------------5---6-------1------|
B|--13-----11----11-------11---10----------8---------------------------------|
G|----------------------------------10---------------------------------------|
D|---------------------------------------------------------------------------|
A|---------10---------8--------------------6-------7-------------------------|
D|---------------------------------------------------------------------------|

                              1_____________________________________________
e|--------------------------|------------------------------------------------|
B|------3---------1------4--|--4------3---------------------3----------------|
G|----3-----------2---------|-----3-------3-----------3---------3------------|
D|--3----------3------------|-----3-------3-----------3---------3------------|
A|--------------------------|--1-----------------0---------------------------|
D|-----------3--------------|------------------------------------------------|

  2____________________________________
e|-------------------------------------||
B|---4--------------3-------------3----||
G|--------3---3-------3---3-------3----||
D|----------3-----------3---------3----||
A|---1----------------------------1----||
D|-------------------------------------||

[Order of Song:]


Part 1 with First Ending
Part 2 with First Ending
Part 1 with Second Ending
Part 2 with Second Ending


************************************

| h  Hammer-on

************************************